-------------------------------------------------------------------------------
Test set: com.tenpo.increase.unit.mapper.UserMapperTest
-------------------------------------------------------------------------------
Tests run: 2, Failures: 0, Errors: 0, Skipped: 0, Time elapsed: 0.375 s - in com.tenpo.increase.unit.mapper.UserMapperTest
